Piece   Reference   Width   Length   Demand 
1 1  65  64    6 
2 1  65 226    3 
3 1 177  83    2 
4 1   6  81    3 
5 1  83  77    1 
6 1 152  81    1 
7 1 249  54    1 
8 1  84  77    1 
9 1  64  64    1 
10 1 249  44    1 

Fabric_roll   Reference   Width_j 
1 1 249 
2 1 153 
3 1 175 
4 1 220 
5 1 220 
6 1 250 
