Piece   Reference   Width   Length   Demand 
1 1   9 236    9 
2 1 144 226    1 
3 1 270  64    3 
4 1   6  83    1 
5 1 155  54    1 
6 1  83 236    1 
7 1 144  44    1 
8 1   6  84    1 
9 1 249  93    1 
10 1 155 229    1 

Fabric_roll   Reference   Width_j 
1 1 270 
2 1 250 
3 1 270 
