Piece   Reference   Width   Length   Demand 
1 1 159  44    1 
2 1 249  83   10 
3 1 138 236    2 
4 1 152 214    1 
5 1   9  74    1 
6 1 159 226    1 
7 1 155 228    1 
8 1 139 226    1 
9 1  64 110    1 
10 1 155 226    1 

Fabric_roll   Reference   Width_j 
1 1 249 
2 1 300 
3 1 285 
4 1 153 
5 1 175 
6 1 270 
