Piece   Reference   Width   Length   Demand 
1 1 209  84   13 
2 1  65  44    1 
3 1 144 214    4 
4 1 138  54    1 
5 1 244 225    1 

Fabric_roll   Reference   Width_j 
1 1 244 
2 1 170 
3 1 210 
4 1 290 
5 1 290 
6 1 170 
