Piece   Reference   Width   Length   Demand 
1 1 249  74   14 
2 1  65 259    2 
3 1 224  81    1 
4 1  64 229    2 
5 1 159 239    1 
6 1 204 236    1 
7 1 204  84    1 
8 1 270  81    1 
9 1  64 269    1 
10 1  65 214    1 

Fabric_roll   Reference   Width_j 
1 1 270 
2 1 153 
3 1 175 
4 1 250 
5 1 150 
6 1 220 
