Piece   Reference   Width   Length   Demand 
1 1   6  77    3 
2 1   6  54    2 
3 1  65 200    3 
4 1 270  64    1 
5 1   6 200    1 
6 1  64  93    1 
7 1  54 214    1 
8 1 249 238    1 
9 1 224  77    1 
10 1 144  64    1 

Fabric_roll   Reference   Width_j 
1 1 270 
2 1 170 
3 1 160 
4 1 220 
5 1 285 
6 1 250 
