Piece   Reference   Width   Length   Demand 
1 1 224 238    3 
2 1 159 204    1 
3 1 249 110    3 
4 1 159 229    2 
5 1 270 214    1 
6 1 138 224    1 
7 1 249 200    1 
8 1 209 209    1 
9 1 204 259    1 
10 1 152 225    1 

Fabric_roll   Reference   Width_j 
1 1 270 
2 1 170 
3 1 170 
