Piece   Reference   Width   Length   Demand 
1 1   9 236    2 
2 1 144 226    9 
3 1 270  64    1 
4 1   6  83    2 
5 1 155  54    1 

Fabric_roll   Reference   Width_j 
1 1 270 
2 1 250 
3 1 270 
4 1 210 
5 1 220 
6 1 160 
