Piece   Reference   Width   Length   Demand 
1 1 138  54    3 
2 1  65  74    1 
3 1 144  44    3 
4 1 224  81    2 
5 1  54 224    1 
6 1 144 110    1 
7 1 159 209    1 
8 1 138 214    1 
9 1 209 204    1 
10 1 138  47    1 

Fabric_roll   Reference   Width_j 
1 1 224 
2 1 270 
3 1 153 
