Piece   Reference   Width   Length   Demand 
1 1 224 238    5 
2 1 159 204   10 
3 1 249 110    8 
4 1 159 229    1 
5 1 270 214    1 
6 1 138 224    1 
7 1 249 200    1 
8 1 209 209    1 
9 1 204 259    1 
10 1 152 225    1 

Fabric_roll   Reference   Width_j 
1 1 270 
2 1 170 
3 1 170 
4 1 175 
5 1 170 
6 1 250 
